<?xml version="1.0" encoding="UTF-8"?>
<!DOCTYPE svg PUBLIC "-//W3C//DTD SVG 1.1//EN" "http://www.w3.org/Graphics/SVG/1.1/DTD/svg11.dtd">
<svg xmlns="http://www.w3.org/2000/svg" version="1.1" width="981px" height="974px" style="shape-rendering:geometricPrecision; text-rendering:geometricPrecision; image-rendering:optimizeQuality; fill-rule:evenodd; clip-rule:evenodd" xmlns:xlink="http://www.w3.org/1999/xlink">
<g><path style="opacity:1" fill="#050505" d="M 719.5,-0.5 C 730.167,-0.5 740.833,-0.5 751.5,-0.5C 785.795,2.59796 817.795,12.9313 847.5,30.5C 847.821,32.0481 848.821,32.7148 850.5,32.5C 868.905,43.5614 885.238,57.2281 899.5,73.5C 899.738,75.4044 900.738,76.7377 902.5,77.5C 903.833,78.1667 904.833,79.1667 905.5,80.5C 905.427,82.0269 906.094,83.0269 907.5,83.5C 908.5,83.8333 909.167,84.5 909.5,85.5C 909.427,87.0269 910.094,88.0269 911.5,88.5C 911.738,90.4044 912.738,91.7377 914.5,92.5C 917.66,96.1477 920.327,100.148 922.5,104.5C 922.427,106.027 923.094,107.027 924.5,107.5C 926.924,110.008 928.59,113.008 929.5,116.5C 929.427,118.027 930.094,119.027 931.5,119.5C 936.286,128.078 940.286,137.078 943.5,146.5C 943.12,148.698 943.787,150.365 945.5,151.5C 945.5,151.833 945.5,152.167 945.5,152.5C 945.12,154.698 945.787,156.365 947.5,157.5C 947.5,158.167 947.5,158.833 947.5,159.5C 947.41,162.152 948.076,164.485 949.5,166.5C 960.257,205.725 960.091,245.058 949,284.5C 943.279,301.607 937.279,318.607 931,335.5C 929.474,345.115 929.141,354.781 930,364.5C 946.517,520.017 963.35,675.351 980.5,830.5C 980.5,842.833 980.5,855.167 980.5,867.5C 970.901,919.274 940.901,953.107 890.5,969C 882.737,970.734 875.071,972.234 867.5,973.5C 617.167,973.5 366.833,973.5 116.5,973.5C 107.702,972.576 99.0353,970.909 90.5,968.5C 88.4855,967.076 86.1522,966.41 83.5,966.5C 75.1916,964.509 67.525,961.176 60.5,956.5C 60.0269,955.094 59.0269,954.427 57.5,954.5C 55.9731,954.573 54.9731,953.906 54.5,952.5C 54.0269,951.094 53.0269,950.427 51.5,950.5C 49.5956,950.262 48.2623,949.262 47.5,947.5C 46.7377,945.738 45.4044,944.738 43.5,944.5C 32.702,935.872 24.0353,925.539 17.5,913.5C 17.7148,911.821 17.0481,910.821 15.5,910.5C 5.48618,893.103 0.152849,874.436 -0.5,854.5C -0.5,851.833 -0.5,849.167 -0.5,846.5C 17.9899,672.613 36.8232,498.613 56,324.5C 56.6141,319.242 57.7808,314.242 59.5,309.5C 60.9238,307.485 61.5905,305.152 61.5,302.5C 63.8422,293.491 67.5089,285.158 72.5,277.5C 73.9063,277.027 74.573,276.027 74.5,274.5C 75.9063,274.027 76.573,273.027 76.5,271.5C 77.9063,271.027 78.573,270.027 78.5,268.5C 79.9063,268.027 80.573,267.027 80.5,265.5C 80.8333,264.5 81.5,263.833 82.5,263.5C 84.2624,262.738 85.2624,261.404 85.5,259.5C 88.1667,256.167 91.1667,253.167 94.5,250.5C 97.0892,249.581 99.0892,247.914 100.5,245.5C 101.262,243.738 102.596,242.738 104.5,242.5C 106.404,242.262 107.738,241.262 108.5,239.5C 109.899,238.11 111.566,237.11 113.5,236.5C 115.027,236.573 116.027,235.906 116.5,234.5C 122.006,230.88 128.006,228.214 134.5,226.5C 137.916,226.472 140.916,225.472 143.5,223.5C 150.991,221.302 158.657,219.802 166.5,219C 280.5,218.5 394.5,218.333 508.5,218.5C 508.798,201.415 511.131,184.749 515.5,168.5C 516.924,166.485 517.59,164.152 517.5,161.5C 518.924,159.485 519.59,157.152 519.5,154.5C 522.763,142.03 527.763,130.363 534.5,119.5C 535.906,119.027 536.573,118.027 536.5,116.5C 538.332,112.164 540.665,108.164 543.5,104.5C 544.906,104.027 545.573,103.027 545.5,101.5C 546.906,101.027 547.573,100.027 547.5,98.5C 549.262,97.7377 550.262,96.4044 550.5,94.5C 551.433,91.6298 553.1,89.2964 555.5,87.5C 557.262,86.7377 558.262,85.4044 558.5,83.5C 558.5,82.8333 558.833,82.5 559.5,82.5C 560.906,82.0269 561.573,81.0269 561.5,79.5C 561.833,78.5 562.5,77.8333 563.5,77.5C 564.906,77.0269 565.573,76.0269 565.5,74.5C 567.5,71.8333 569.833,69.5 572.5,67.5C 575.833,64.8333 578.833,61.8333 581.5,58.5C 582.167,57.1667 583.167,56.1667 584.5,55.5C 587.089,54.5806 589.089,52.914 590.5,50.5C 590.5,49.8333 590.833,49.5 591.5,49.5C 593.749,48.9202 595.415,47.5869 596.5,45.5C 597.579,43.457 599.246,42.1237 601.5,41.5C 603.027,41.573 604.027,40.9063 604.5,39.5C 606.975,36.7589 609.975,34.7589 613.5,33.5C 615.027,33.573 616.027,32.9063 616.5,31.5C 616.842,30.6618 617.508,30.3284 618.5,30.5C 620.027,30.573 621.027,29.9063 621.5,28.5C 630.95,22.7768 640.95,18.1101 651.5,14.5C 653.698,14.8799 655.365,14.2132 656.5,12.5C 659.986,10.8944 663.653,9.89437 667.5,9.5C 670.152,9.59047 672.485,8.92381 674.5,7.5C 689.281,3.53166 704.281,0.864996 719.5,-0.5 Z M 773.5,66.5 C 775.515,67.9238 777.848,68.5905 780.5,68.5C 794.967,73.7325 808.967,80.0659 822.5,87.5C 822.973,88.9063 823.973,89.573 825.5,89.5C 825.973,90.9063 826.973,91.573 828.5,91.5C 828.973,92.9063 829.973,93.573 831.5,93.5C 833.091,95.6326 835.091,97.2993 837.5,98.5C 837.973,99.9063 838.973,100.573 840.5,100.5C 851.359,111.245 861.026,122.911 869.5,135.5C 869.932,136.71 870.599,137.71 871.5,138.5C 871.833,139.167 872.167,139.833 872.5,140.5C 872.932,141.71 873.599,142.71 874.5,143.5C 895.298,183.283 900.298,224.95 889.5,268.5C 888.076,270.515 887.41,272.848 887.5,275.5C 881.345,291.483 874.345,307.15 866.5,322.5C 865.094,322.973 864.427,323.973 864.5,325.5C 863.662,325.842 863.328,326.508 863.5,327.5C 862.094,327.973 861.427,328.973 861.5,330.5C 860.662,330.842 860.328,331.508 860.5,332.5C 859.094,332.973 858.427,333.973 858.5,335.5C 857.094,335.973 856.427,336.973 856.5,338.5C 854.336,340.822 852.669,343.489 851.5,346.5C 849.738,347.262 848.738,348.596 848.5,350.5C 847.094,350.973 846.427,351.973 846.5,353.5C 845.094,353.973 844.427,354.973 844.5,356.5C 839.15,362.522 834.15,368.855 829.5,375.5C 827.738,376.262 826.738,377.596 826.5,379.5C 825.5,379.833 824.833,380.5 824.5,381.5C 822.738,382.262 821.738,383.596 821.5,385.5C 819.5,386.833 817.833,388.5 816.5,390.5C 815.094,390.973 814.427,391.973 814.5,393.5C 811.167,396.167 808.167,399.167 805.5,402.5C 796.167,411.167 787.167,420.167 778.5,429.5C 777.5,429.833 776.833,430.5 776.5,431.5C 773.236,433.094 770.569,435.427 768.5,438.5C 767.833,438.5 767.5,438.833 767.5,439.5C 764.573,440.757 762.239,442.757 760.5,445.5C 759.833,445.5 759.5,445.833 759.5,446.5C 756.911,447.419 754.911,449.086 753.5,451.5C 752.833,451.5 752.5,451.833 752.5,452.5C 750.251,453.08 748.585,454.413 747.5,456.5C 746.833,456.5 746.5,456.833 746.5,457.5C 744.251,458.08 742.585,459.413 741.5,461.5C 739.251,462.08 737.585,463.413 736.5,465.5C 735.279,466.028 734.113,466.695 733,467.5C 716.365,453.365 700.198,438.699 684.5,423.5C 682.833,421.167 680.833,419.167 678.5,417.5C 677.167,416.5 675.833,415.5 674.5,414.5C 672.234,410.564 669.234,407.231 665.5,404.5C 662.167,400.5 658.5,396.833 654.5,393.5C 654.573,391.973 653.906,390.973 652.5,390.5C 651.167,388.5 649.5,386.833 647.5,385.5C 647.262,383.596 646.262,382.262 644.5,381.5C 643.833,380.167 642.833,379.167 641.5,378.5C 641.573,376.973 640.906,375.973 639.5,375.5C 637.727,372.94 635.727,370.607 633.5,368.5C 633.573,366.973 632.906,365.973 631.5,365.5C 627.519,359.525 623.186,353.858 618.5,348.5C 618.573,346.973 617.906,345.973 616.5,345.5C 616.573,343.973 615.906,342.973 614.5,342.5C 614.573,340.973 613.906,339.973 612.5,339.5C 611.89,337.566 610.89,335.899 609.5,334.5C 609.573,332.973 608.906,331.973 607.5,331.5C 606.416,328.996 605.083,326.663 603.5,324.5C 603.573,322.973 602.906,321.973 601.5,321.5C 591.771,303.048 583.437,284.048 576.5,264.5C 576.59,261.848 575.924,259.515 574.5,257.5C 563.023,205.072 574.856,158.739 610,118.5C 653.941,68.3545 708.441,51.0212 773.5,66.5 Z M 769.5,166.5 C 769.973,167.906 770.973,168.573 772.5,168.5C 772.973,169.906 773.973,170.573 775.5,170.5C 775.833,171.5 776.5,172.167 777.5,172.5C 779.833,175.5 782.5,178.167 785.5,180.5C 804.345,205.35 806.512,231.683 792,259.5C 789.158,263.197 786.325,266.863 783.5,270.5C 781.167,272.167 779.167,274.167 777.5,276.5C 775.596,276.738 774.262,277.738 773.5,279.5C 768.86,281.82 764.193,284.153 759.5,286.5C 756.603,287.129 753.936,288.129 751.5,289.5C 722.769,294.634 699.103,285.967 680.5,263.5C 680.573,261.973 679.906,260.973 678.5,260.5C 678.672,259.508 678.338,258.842 677.5,258.5C 677.573,256.973 676.906,255.973 675.5,255.5C 674.165,251.828 672.832,248.162 671.5,244.5C 671.125,242.302 670.458,240.302 669.5,238.5C 664.935,205.13 677.268,180.297 706.5,164C 727.92,154.709 748.92,155.542 769.5,166.5 Z M 542.5,343.5 C 542.932,344.71 543.599,345.71 544.5,346.5C 545.471,348.483 546.471,350.483 547.5,352.5C 547.932,353.71 548.599,354.71 549.5,355.5C 549.833,356.167 550.167,356.833 550.5,357.5C 550.932,358.71 551.599,359.71 552.5,360.5C 553.248,362.332 554.248,363.999 555.5,365.5C 555.932,366.71 556.599,367.71 557.5,368.5C 559.265,371.709 561.265,374.709 563.5,377.5C 564.026,379.23 565.026,380.564 566.5,381.5C 581.94,404.283 599.273,425.616 618.5,445.5C 618.833,446.5 619.5,447.167 620.5,447.5C 630.833,458.5 641.5,469.167 652.5,479.5C 653.262,481.262 654.596,482.262 656.5,482.5C 658.833,485.5 661.5,488.167 664.5,490.5C 664.973,491.906 665.973,492.573 667.5,492.5C 668.833,494.5 670.5,496.167 672.5,497.5C 672.973,498.906 673.973,499.573 675.5,499.5C 676.167,500.833 677.167,501.833 678.5,502.5C 679.262,504.262 680.596,505.262 682.5,505.5C 683.167,506.833 684.167,507.833 685.5,508.5C 685.973,509.906 686.973,510.573 688.5,510.5C 689.167,511.833 690.167,512.833 691.5,513.5C 691.973,514.906 692.973,515.573 694.5,515.5C 697.851,518.848 701.518,521.848 705.5,524.5C 705.973,525.906 706.973,526.573 708.5,526.5C 709.262,528.262 710.596,529.262 712.5,529.5C 712.973,530.906 713.973,531.573 715.5,531.5C 726.885,539.297 738.551,539.464 750.5,532C 794.312,501.7 833.645,466.2 868.5,425.5C 869.167,425.5 869.833,425.5 870.5,425.5C 885.353,566.841 900.353,708.174 915.5,849.5C 915.177,862.818 911.177,874.818 903.5,885.5C 902.094,885.973 901.427,886.973 901.5,888.5C 899.833,889.5 898.5,890.833 897.5,892.5C 895.251,893.08 893.585,894.413 892.5,896.5C 883.923,901.861 874.589,905.361 864.5,907C 659,907.325 453.5,907.825 248,908.5C 204.15,908.63 160.317,908.13 116.5,907C 104.884,905.186 94.5504,900.686 85.5,893.5C 83.8333,891.167 81.8333,889.167 79.5,887.5C 79.1667,886.5 78.5,885.833 77.5,885.5C 77.573,883.973 76.9063,882.973 75.5,882.5C 75.573,880.973 74.9063,879.973 73.5,879.5C 72.0698,875.646 70.4031,871.979 68.5,868.5C 68.4349,865.572 67.7682,862.905 66.5,860.5C 66.2792,849.134 66.7792,837.8 68,826.5C 85.3993,664.84 102.733,503.174 120,341.5C 122.8,310.037 139.633,291.204 170.5,285C 284.161,283.417 397.827,283.084 511.5,284C 514.034,284.516 516.2,285.683 518,287.5C 524.807,306.778 532.973,325.445 542.5,343.5 Z"/></g>
<g><path style="opacity:1" fill="#5e5e5e" d="M 674.5,7.5 C 672.485,8.92381 670.152,9.59047 667.5,9.5C 669.515,8.07619 671.848,7.40953 674.5,7.5 Z"/></g>
<g><path style="opacity:1" fill="#767676" d="M 656.5,12.5 C 655.365,14.2132 653.698,14.8799 651.5,14.5C 652.93,13.4625 654.597,12.7959 656.5,12.5 Z"/></g>
<g><path style="opacity:1" fill="#7e7e7e" d="M 621.5,28.5 C 621.027,29.9063 620.027,30.573 618.5,30.5C 618.973,29.0937 619.973,28.427 621.5,28.5 Z"/></g>
<g><path style="opacity:1" fill="#7a7a7a" d="M 847.5,30.5 C 848.71,30.9321 849.71,31.5987 850.5,32.5C 848.821,32.7148 847.821,32.0481 847.5,30.5 Z"/></g>
<g><path style="opacity:1" fill="#7a7a7a" d="M 616.5,31.5 C 616.027,32.9063 615.027,33.573 613.5,33.5C 613.973,32.0937 614.973,31.427 616.5,31.5 Z"/></g>
<g><path style="opacity:1" fill="#7e7e7e" d="M 604.5,39.5 C 604.027,40.9063 603.027,41.573 601.5,41.5C 601.973,40.0937 602.973,39.427 604.5,39.5 Z"/></g>
<g><path style="opacity:1" fill="#585858" d="M 596.5,45.5 C 595.415,47.5869 593.749,48.9202 591.5,49.5C 592.585,47.4131 594.251,46.0798 596.5,45.5 Z"/></g>
<g><path style="opacity:1" fill="#585858" d="M 590.5,50.5 C 589.089,52.914 587.089,54.5806 584.5,55.5C 585.911,53.086 587.911,51.4194 590.5,50.5 Z"/></g>
<g><path style="opacity:1" fill="#949494" d="M 581.5,58.5 C 578.833,61.8333 575.833,64.8333 572.5,67.5C 574.5,63.5 577.5,60.5 581.5,58.5 Z"/></g>
<g><path style="opacity:1" fill="#646464" d="M 773.5,66.5 C 776.152,66.4095 778.485,67.0762 780.5,68.5C 777.848,68.5905 775.515,67.9238 773.5,66.5 Z"/></g>
<g><path style="opacity:1" fill="#8e8e8e" d="M 899.5,73.5 C 901.262,74.2623 902.262,75.5956 902.5,77.5C 900.738,76.7377 899.738,75.4044 899.5,73.5 Z"/></g>
<g><path style="opacity:1" fill="#9a9a9a" d="M 565.5,74.5 C 565.573,76.0269 564.906,77.0269 563.5,77.5C 563.427,75.9731 564.094,74.9731 565.5,74.5 Z"/></g>
<g><path style="opacity:1" fill="#838383" d="M 561.5,79.5 C 561.573,81.0269 560.906,82.0269 559.5,82.5C 559.427,80.9731 560.094,79.9731 561.5,79.5 Z"/></g>
<g><path style="opacity:1" fill="#8a8a8a" d="M 905.5,80.5 C 906.906,80.9731 907.573,81.9731 907.5,83.5C 906.094,83.0269 905.427,82.0269 905.5,80.5 Z"/></g>
<g><path style="opacity:1" fill="#767676" d="M 558.5,83.5 C 558.262,85.4044 557.262,86.7377 555.5,87.5C 555.738,85.5956 556.738,84.2623 558.5,83.5 Z"/></g>
<g><path style="opacity:1" fill="#929292" d="M 909.5,85.5 C 910.906,85.9731 911.573,86.9731 911.5,88.5C 910.094,88.0269 909.427,87.0269 909.5,85.5 Z"/></g>
<g><path style="opacity:1" fill="#9a9a9a" d="M 822.5,87.5 C 824.027,87.427 825.027,88.0937 825.5,89.5C 823.973,89.573 822.973,88.9063 822.5,87.5 Z"/></g>
<g><path style="opacity:1" fill="#747474" d="M 911.5,88.5 C 913.262,89.2623 914.262,90.5956 914.5,92.5C 912.738,91.7377 911.738,90.4044 911.5,88.5 Z"/></g>
<g><path style="opacity:1" fill="#9a9a9a" d="M 825.5,89.5 C 827.027,89.427 828.027,90.0937 828.5,91.5C 826.973,91.573 825.973,90.9063 825.5,89.5 Z"/></g>
<g><path style="opacity:1" fill="#8f8f8f" d="M 828.5,91.5 C 830.027,91.427 831.027,92.0937 831.5,93.5C 829.973,93.573 828.973,92.9063 828.5,91.5 Z"/></g>
<g><path style="opacity:1" fill="#787878" d="M 550.5,94.5 C 550.262,96.4044 549.262,97.7377 547.5,98.5C 547.738,96.5956 548.738,95.2623 550.5,94.5 Z"/></g>
<g><path style="opacity:1" fill="#888888" d="M 837.5,98.5 C 839.027,98.427 840.027,99.0937 840.5,100.5C 838.973,100.573 837.973,99.9063 837.5,98.5 Z"/></g>
<g><path style="opacity:1" fill="#9a9a9a" d="M 547.5,98.5 C 547.573,100.027 546.906,101.027 545.5,101.5C 545.427,99.9731 546.094,98.9731 547.5,98.5 Z"/></g>
<g><path style="opacity:1" fill="#a4a4a4" d="M 545.5,101.5 C 545.573,103.027 544.906,104.027 543.5,104.5C 543.427,102.973 544.094,101.973 545.5,101.5 Z"/></g>
<g><path style="opacity:1" fill="#8c8c8c" d="M 922.5,104.5 C 923.906,104.973 924.573,105.973 924.5,107.5C 923.094,107.027 922.427,106.027 922.5,104.5 Z"/></g>
<g><path style="opacity:1" fill="#9d9d9d" d="M 536.5,116.5 C 536.573,118.027 535.906,119.027 534.5,119.5C 534.427,117.973 535.094,116.973 536.5,116.5 Z"/></g>
<g><path style="opacity:1" fill="#9c9c9c" d="M 929.5,116.5 C 930.906,116.973 931.573,117.973 931.5,119.5C 930.094,119.027 929.427,118.027 929.5,116.5 Z"/></g>
<g><path style="opacity:1" fill="#0e0e0e" d="M 796.5,157.5 C 797.08,159.749 798.413,161.415 800.5,162.5C 802.167,163.5 803.5,164.833 804.5,166.5C 804.427,168.027 805.094,169.027 806.5,169.5C 808.262,170.262 809.262,171.596 809.5,173.5C 809.427,175.027 810.094,176.027 811.5,176.5C 815.818,182.138 818.818,188.471 820.5,195.5C 820.41,198.152 821.076,200.485 822.5,202.5C 831.544,249.581 814.877,284.414 772.5,307C 749.42,316.19 726.087,316.856 702.5,309C 699.352,307.576 696.352,306.076 693.5,304.5C 693.027,303.094 692.027,302.427 690.5,302.5C 689.508,302.672 688.842,302.338 688.5,301.5C 688.027,300.094 687.027,299.427 685.5,299.5C 674.188,292.855 665.188,283.855 658.5,272.5C 658.715,270.821 658.048,269.821 656.5,269.5C 644.458,248.269 641.458,225.936 647.5,202.5C 648.924,200.485 649.59,198.152 649.5,195.5C 650.542,190.358 652.542,185.691 655.5,181.5C 656.906,181.027 657.573,180.027 657.5,178.5C 659.062,174.608 661.395,171.275 664.5,168.5C 665.906,168.027 666.573,167.027 666.5,165.5C 670.207,160.792 674.54,156.792 679.5,153.5C 681.404,153.262 682.738,152.262 683.5,150.5C 685.027,150.573 686.027,149.906 686.5,148.5C 688.027,148.573 689.027,147.906 689.5,146.5C 694.07,143.384 699.07,141.05 704.5,139.5C 708.162,139.277 711.495,138.277 714.5,136.5C 745.463,129.151 772.796,136.151 796.5,157.5 Z M 769.5,166.5 C 769.973,167.906 770.973,168.573 772.5,168.5C 772.973,169.906 773.973,170.573 775.5,170.5C 775.833,171.5 776.5,172.167 777.5,172.5C 779.833,175.5 782.5,178.167 785.5,180.5C 804.345,205.35 806.512,231.683 792,259.5C 789.158,263.197 786.325,266.863 783.5,270.5C 781.167,272.167 779.167,274.167 777.5,276.5C 775.596,276.738 774.262,277.738 773.5,279.5C 768.86,281.82 764.193,284.153 759.5,286.5C 756.603,287.129 753.936,288.129 751.5,289.5C 722.769,294.634 699.103,285.967 680.5,263.5C 680.573,261.973 679.906,260.973 678.5,260.5C 678.672,259.508 678.338,258.842 677.5,258.5C 677.573,256.973 676.906,255.973 675.5,255.5C 674.165,251.828 672.832,248.162 671.5,244.5C 671.125,242.302 670.458,240.302 669.5,238.5C 664.935,205.13 677.268,180.297 706.5,164C 727.92,154.709 748.92,155.542 769.5,166.5 Z"/></g>
<g><path style="opacity:1" fill="#858585" d="M 869.5,135.5 C 871.048,135.821 871.715,136.821 871.5,138.5C 870.599,137.71 869.932,136.71 869.5,135.5 Z"/></g>
<g><path style="opacity:1" fill="#616161" d="M 714.5,136.5 C 711.495,138.277 708.162,139.277 704.5,139.5C 707.505,137.723 710.838,136.723 714.5,136.5 Z"/></g>
<g><path style="opacity:1" fill="#747474" d="M 872.5,140.5 C 874.048,140.821 874.715,141.821 874.5,143.5C 873.599,142.71 872.932,141.71 872.5,140.5 Z"/></g>
<g><path style="opacity:1" fill="#878787" d="M 689.5,146.5 C 689.027,147.906 688.027,148.573 686.5,148.5C 686.973,147.094 687.973,146.427 689.5,146.5 Z"/></g>
<g><path style="opacity:1" fill="#787878" d="M 686.5,148.5 C 686.027,149.906 685.027,150.573 683.5,150.5C 683.973,149.094 684.973,148.427 686.5,148.5 Z"/></g>
<g><path style="opacity:1" fill="#818181" d="M 943.5,146.5 C 944.537,147.93 945.204,149.597 945.5,151.5C 943.787,150.365 943.12,148.698 943.5,146.5 Z"/></g>
<g><path style="opacity:1" fill="#7c7c7c" d="M 683.5,150.5 C 682.738,152.262 681.404,153.262 679.5,153.5C 680.262,151.738 681.596,150.738 683.5,150.5 Z"/></g>
<g><path style="opacity:1" fill="#7a7a7a" d="M 945.5,152.5 C 946.537,153.93 947.204,155.597 947.5,157.5C 945.787,156.365 945.12,154.698 945.5,152.5 Z"/></g>
<g><path style="opacity:1" fill="#646464" d="M 519.5,154.5 C 519.59,157.152 518.924,159.485 517.5,161.5C 517.41,158.848 518.076,156.515 519.5,154.5 Z"/></g>
<g><path style="opacity:1" fill="#a6a6a6" d="M 796.5,157.5 C 798.587,158.585 799.92,160.251 800.5,162.5C 798.413,161.415 797.08,159.749 796.5,157.5 Z"/></g>
<g><path style="opacity:1" fill="#5b5b5b" d="M 947.5,159.5 C 948.924,161.515 949.59,163.848 949.5,166.5C 948.076,164.485 947.41,162.152 947.5,159.5 Z"/></g>
<g><path style="opacity:1" fill="#8c8c8c" d="M 666.5,165.5 C 666.573,167.027 665.906,168.027 664.5,168.5C 664.427,166.973 665.094,165.973 666.5,165.5 Z"/></g>
<g><path style="opacity:1" fill="#717171" d="M 517.5,161.5 C 517.59,164.152 516.924,166.485 515.5,168.5C 515.41,165.848 516.076,163.515 517.5,161.5 Z"/></g>
<g><path style="opacity:1" fill="#969696" d="M 769.5,166.5 C 771.027,166.427 772.027,167.094 772.5,168.5C 770.973,168.573 769.973,167.906 769.5,166.5 Z"/></g>
<g><path style="opacity:1" fill="#898989" d="M 804.5,166.5 C 805.906,166.973 806.573,167.973 806.5,169.5C 805.094,169.027 804.427,168.027 804.5,166.5 Z"/></g>
<g><path style="opacity:1" fill="#878787" d="M 772.5,168.5 C 774.027,168.427 775.027,169.094 775.5,170.5C 773.973,170.573 772.973,169.906 772.5,168.5 Z"/></g>
<g><path style="opacity:1" fill="#a3a3a3" d="M 777.5,172.5 C 781.167,174.167 783.833,176.833 785.5,180.5C 782.5,178.167 779.833,175.5 777.5,172.5 Z"/></g>
<g><path style="opacity:1" fill="#8d8d8d" d="M 809.5,173.5 C 810.906,173.973 811.573,174.973 811.5,176.5C 810.094,176.027 809.427,175.027 809.5,173.5 Z"/></g>
<g><path style="opacity:1" fill="#969696" d="M 657.5,178.5 C 657.573,180.027 656.906,181.027 655.5,181.5C 655.427,179.973 656.094,178.973 657.5,178.5 Z"/></g>
<g><path style="opacity:1" fill="#606060" d="M 649.5,195.5 C 649.59,198.152 648.924,200.485 647.5,202.5C 647.41,199.848 648.076,197.515 649.5,195.5 Z"/></g>
<g><path style="opacity:1" fill="#5c5c5c" d="M 820.5,195.5 C 821.924,197.515 822.59,199.848 822.5,202.5C 821.076,200.485 820.41,198.152 820.5,195.5 Z"/></g>
<g><path style="opacity:1" fill="#616161" d="M 143.5,223.5 C 140.916,225.472 137.916,226.472 134.5,226.5C 137.215,224.928 140.215,223.928 143.5,223.5 Z"/></g>
<g><path style="opacity:1" fill="#868686" d="M 116.5,234.5 C 116.027,235.906 115.027,236.573 113.5,236.5C 113.973,235.094 114.973,234.427 116.5,234.5 Z"/></g>
<g><path style="opacity:1" fill="#7b7b7b" d="M 108.5,239.5 C 107.738,241.262 106.404,242.262 104.5,242.5C 105.262,240.738 106.596,239.738 108.5,239.5 Z"/></g>
<g><path style="opacity:1" fill="#7a7a7a" d="M 669.5,238.5 C 670.458,240.302 671.125,242.302 671.5,244.5C 669.72,243.01 669.054,241.01 669.5,238.5 Z"/></g>
<g><path style="opacity:1" fill="#646464" d="M 100.5,245.5 C 99.0892,247.914 97.0892,249.581 94.5,250.5C 95.9108,248.086 97.9108,246.419 100.5,245.5 Z"/></g>
<g><path style="opacity:1" fill="#9e9e9e" d="M 675.5,255.5 C 676.906,255.973 677.573,256.973 677.5,258.5C 676.094,258.027 675.427,257.027 675.5,255.5 Z"/></g>
<g><path style="opacity:1" fill="#787878" d="M 85.5,259.5 C 85.2624,261.404 84.2624,262.738 82.5,263.5C 82.7376,261.596 83.7376,260.262 85.5,259.5 Z"/></g>
<g><path style="opacity:1" fill="#666666" d="M 574.5,257.5 C 575.924,259.515 576.59,261.848 576.5,264.5C 575.076,262.485 574.41,260.152 574.5,257.5 Z"/></g>
<g><path style="opacity:1" fill="#808080" d="M 678.5,260.5 C 679.906,260.973 680.573,261.973 680.5,263.5C 679.094,263.027 678.427,262.027 678.5,260.5 Z"/></g>
<g><path style="opacity:1" fill="#999999" d="M 80.5,265.5 C 80.573,267.027 79.9063,268.027 78.5,268.5C 78.427,266.973 79.0937,265.973 80.5,265.5 Z"/></g>
<g><path style="opacity:1" fill="#7d7d7d" d="M 656.5,269.5 C 658.048,269.821 658.715,270.821 658.5,272.5C 657.599,271.71 656.932,270.71 656.5,269.5 Z"/></g>
<g><path style="opacity:1" fill="#7e7e7e" d="M 78.5,268.5 C 78.573,270.027 77.9063,271.027 76.5,271.5C 76.427,269.973 77.0937,268.973 78.5,268.5 Z"/></g>
<g><path style="opacity:1" fill="#6f6f6f" d="M 889.5,268.5 C 889.59,271.152 888.924,273.485 887.5,275.5C 887.41,272.848 888.076,270.515 889.5,268.5 Z"/></g>
<g><path style="opacity:1" fill="#828282" d="M 76.5,271.5 C 76.573,273.027 75.9063,274.027 74.5,274.5C 74.427,272.973 75.0937,271.973 76.5,271.5 Z"/></g>
<g><path style="opacity:1" fill="#5d5d5d" d="M 783.5,270.5 C 782.5,273.5 780.5,275.5 777.5,276.5C 779.167,274.167 781.167,272.167 783.5,270.5 Z"/></g>
<g><path style="opacity:1" fill="#989898" d="M 74.5,274.5 C 74.573,276.027 73.9063,277.027 72.5,277.5C 72.427,275.973 73.0937,274.973 74.5,274.5 Z"/></g>
<g><path style="opacity:1" fill="#7e7e7e" d="M 777.5,276.5 C 776.738,278.262 775.404,279.262 773.5,279.5C 774.262,277.738 775.596,276.738 777.5,276.5 Z"/></g>
<g><path style="opacity:1" fill="#616161" d="M 759.5,286.5 C 757.383,288.655 754.716,289.655 751.5,289.5C 753.936,288.129 756.603,287.129 759.5,286.5 Z"/></g>
<g><path style="opacity:1" fill="#959595" d="M 685.5,299.5 C 687.027,299.427 688.027,300.094 688.5,301.5C 686.973,301.573 685.973,300.906 685.5,299.5 Z"/></g>
<g><path style="opacity:1" fill="#a2a2a2" d="M 690.5,302.5 C 692.027,302.427 693.027,303.094 693.5,304.5C 691.973,304.573 690.973,303.906 690.5,302.5 Z"/></g>
<g><path style="opacity:1" fill="#696969" d="M 61.5,302.5 C 61.5905,305.152 60.9238,307.485 59.5,309.5C 59.4095,306.848 60.0762,304.515 61.5,302.5 Z"/></g>
<g><path style="opacity:1" fill="#979797" d="M 601.5,321.5 C 602.906,321.973 603.573,322.973 603.5,324.5C 602.094,324.027 601.427,323.027 601.5,321.5 Z"/></g>
<g><path style="opacity:1" fill="#919191" d="M 866.5,322.5 C 866.573,324.027 865.906,325.027 864.5,325.5C 864.427,323.973 865.094,322.973 866.5,322.5 Z"/></g>
<g><path style="opacity:1" fill="#929292" d="M 863.5,327.5 C 863.573,329.027 862.906,330.027 861.5,330.5C 861.427,328.973 862.094,327.973 863.5,327.5 Z"/></g>
<g><path style="opacity:1" fill="#999999" d="M 607.5,331.5 C 608.906,331.973 609.573,332.973 609.5,334.5C 608.094,334.027 607.427,333.027 607.5,331.5 Z"/></g>
<g><path style="opacity:1" fill="#8f8f8f" d="M 860.5,332.5 C 860.573,334.027 859.906,335.027 858.5,335.5C 858.427,333.973 859.094,332.973 860.5,332.5 Z"/></g>
<g><path style="opacity:1" fill="#9c9c9c" d="M 858.5,335.5 C 858.573,337.027 857.906,338.027 856.5,338.5C 856.427,336.973 857.094,335.973 858.5,335.5 Z"/></g>
<g><path style="opacity:1" fill="#818181" d="M 612.5,339.5 C 613.906,339.973 614.573,340.973 614.5,342.5C 613.094,342.027 612.427,341.027 612.5,339.5 Z"/></g>
<g><path style="opacity:1" fill="#757575" d="M 542.5,343.5 C 544.048,343.821 544.715,344.821 544.5,346.5C 543.599,345.71 542.932,344.71 542.5,343.5 Z"/></g>
<g><path style="opacity:1" fill="#7d7d7d" d="M 614.5,342.5 C 615.906,342.973 616.573,343.973 616.5,345.5C 615.094,345.027 614.427,344.027 614.5,342.5 Z"/></g>
<g><path style="opacity:1" fill="#777777" d="M 616.5,345.5 C 617.906,345.973 618.573,346.973 618.5,348.5C 617.094,348.027 616.427,347.027 616.5,345.5 Z"/></g>
<g><path style="opacity:1" fill="#7a7a7a" d="M 851.5,346.5 C 851.262,348.404 850.262,349.738 848.5,350.5C 848.738,348.596 849.738,347.262 851.5,346.5 Z"/></g>
<g><path style="opacity:1" fill="#818181" d="M 547.5,352.5 C 549.048,352.821 549.715,353.821 549.5,355.5C 548.599,354.71 547.932,353.71 547.5,352.5 Z"/></g>
<g><path style="opacity:1" fill="#929292" d="M 848.5,350.5 C 848.573,352.027 847.906,353.027 846.5,353.5C 846.427,351.973 847.094,350.973 848.5,350.5 Z"/></g>
<g><path style="opacity:1" fill="#7e7e7e" d="M 846.5,353.5 C 846.573,355.027 845.906,356.027 844.5,356.5C 844.427,354.973 845.094,353.973 846.5,353.5 Z"/></g>
<g><path style="opacity:1" fill="#7d7d7d" d="M 550.5,357.5 C 552.048,357.821 552.715,358.821 552.5,360.5C 551.599,359.71 550.932,358.71 550.5,357.5 Z"/></g>
<g><path style="opacity:1" fill="#797979" d="M 555.5,365.5 C 557.048,365.821 557.715,366.821 557.5,368.5C 556.599,367.71 555.932,366.71 555.5,365.5 Z"/></g>
<g><path style="opacity:1" fill="#9d9d9d" d="M 631.5,365.5 C 632.906,365.973 633.573,366.973 633.5,368.5C 632.094,368.027 631.427,367.027 631.5,365.5 Z"/></g>
<g><path style="opacity:1" fill="#898989" d="M 639.5,375.5 C 640.906,375.973 641.573,376.973 641.5,378.5C 640.094,378.027 639.427,377.027 639.5,375.5 Z"/></g>
<g><path style="opacity:1" fill="#8a8a8a" d="M 829.5,375.5 C 829.262,377.404 828.262,378.738 826.5,379.5C 826.738,377.596 827.738,376.262 829.5,375.5 Z"/></g>
<g><path style="opacity:1" fill="#7c7c7c" d="M 563.5,377.5 C 565.446,378.035 566.446,379.368 566.5,381.5C 565.026,380.564 564.026,379.23 563.5,377.5 Z"/></g>
<g><path style="opacity:1" fill="#989898" d="M 644.5,381.5 C 646.262,382.262 647.262,383.596 647.5,385.5C 645.738,384.738 644.738,383.404 644.5,381.5 Z"/></g>
<g><path style="opacity:1" fill="#878787" d="M 824.5,381.5 C 824.262,383.404 823.262,384.738 821.5,385.5C 821.738,383.596 822.738,382.262 824.5,381.5 Z"/></g>
<g><path style="opacity:1" fill="#919191" d="M 652.5,390.5 C 653.906,390.973 654.573,391.973 654.5,393.5C 653.094,393.027 652.427,392.027 652.5,390.5 Z"/></g>
<g><path style="opacity:1" fill="#959595" d="M 816.5,390.5 C 816.573,392.027 815.906,393.027 814.5,393.5C 814.427,391.973 815.094,390.973 816.5,390.5 Z"/></g>
<g><path style="opacity:1" fill="#a2a2a2" d="M 665.5,404.5 C 669.234,407.231 672.234,410.564 674.5,414.5C 670.766,411.769 667.766,408.436 665.5,404.5 Z"/></g>
<g><path style="opacity:1" fill="#7c7c7c" d="M 805.5,402.5 C 797.759,411.746 789.426,420.579 780.5,429C 779.906,429.464 779.239,429.631 778.5,429.5C 787.167,420.167 796.167,411.167 805.5,402.5 Z"/></g>
<g><path style="opacity:1" fill="#aaaaaa" d="M 678.5,417.5 C 680.833,419.167 682.833,421.167 684.5,423.5C 681.5,422.5 679.5,420.5 678.5,417.5 Z"/></g>
<g><path style="opacity:1" fill="#cacaca" d="M 870.5,425.5 C 869.833,425.5 869.167,425.5 868.5,425.5C 869.548,423.067 870.214,423.067 870.5,425.5 Z"/></g>
<g><path style="opacity:1" fill="#646464" d="M 776.5,431.5 C 774.431,434.573 771.764,436.906 768.5,438.5C 770.569,435.427 773.236,433.094 776.5,431.5 Z"/></g>
<g><path style="opacity:1" fill="#6f6f6f" d="M 767.5,439.5 C 765.761,442.243 763.427,444.243 760.5,445.5C 762.239,442.757 764.573,440.757 767.5,439.5 Z"/></g>
<g><path style="opacity:1" fill="#acacac" d="M 618.5,445.5 C 619.833,445.5 620.5,446.167 620.5,447.5C 619.5,447.167 618.833,446.5 618.5,445.5 Z"/></g>
<g><path style="opacity:1" fill="#646464" d="M 759.5,446.5 C 758.089,448.914 756.089,450.581 753.5,451.5C 754.911,449.086 756.911,447.419 759.5,446.5 Z"/></g>
<g><path style="opacity:1" fill="#5e5e5e" d="M 752.5,452.5 C 751.415,454.587 749.749,455.92 747.5,456.5C 748.585,454.413 750.251,453.08 752.5,452.5 Z"/></g>
<g><path style="opacity:1" fill="#5b5b5b" d="M 746.5,457.5 C 745.415,459.587 743.749,460.92 741.5,461.5C 742.585,459.413 744.251,458.08 746.5,457.5 Z"/></g>
<g><path style="opacity:1" fill="#676767" d="M 741.5,461.5 C 740.415,463.587 738.749,464.92 736.5,465.5C 737.585,463.413 739.251,462.08 741.5,461.5 Z"/></g>
<g><path style="opacity:1" fill="#a0a0a0" d="M 652.5,479.5 C 654.404,479.738 655.738,480.738 656.5,482.5C 654.596,482.262 653.262,481.262 652.5,479.5 Z"/></g>
<g><path style="opacity:1" fill="#979797" d="M 664.5,490.5 C 666.027,490.427 667.027,491.094 667.5,492.5C 665.973,492.573 664.973,491.906 664.5,490.5 Z"/></g>
<g><path style="opacity:1" fill="#939393" d="M 672.5,497.5 C 674.027,497.427 675.027,498.094 675.5,499.5C 673.973,499.573 672.973,498.906 672.5,497.5 Z"/></g>
<g><path style="opacity:1" fill="#7e7e7e" d="M 678.5,502.5 C 680.404,502.738 681.738,503.738 682.5,505.5C 680.596,505.262 679.262,504.262 678.5,502.5 Z"/></g>
<g><path style="opacity:1" fill="#959595" d="M 685.5,508.5 C 687.027,508.427 688.027,509.094 688.5,510.5C 686.973,510.573 685.973,509.906 685.5,508.5 Z"/></g>
<g><path style="opacity:1" fill="#979797" d="M 691.5,513.5 C 693.027,513.427 694.027,514.094 694.5,515.5C 692.973,515.573 691.973,514.906 691.5,513.5 Z"/></g>
<g><path style="opacity:1" fill="#9b9b9b" d="M 705.5,524.5 C 707.027,524.427 708.027,525.094 708.5,526.5C 706.973,526.573 705.973,525.906 705.5,524.5 Z"/></g>
<g><path style="opacity:1" fill="#8c8c8c" d="M 712.5,529.5 C 714.027,529.427 715.027,530.094 715.5,531.5C 713.973,531.573 712.973,530.906 712.5,529.5 Z"/></g>
<g><path style="opacity:1" fill="#686868" d="M 66.5,860.5 C 67.7682,862.905 68.4349,865.572 68.5,868.5C 66.9605,866.162 66.2938,863.495 66.5,860.5 Z"/></g>
<g><path style="opacity:1" fill="#929292" d="M 73.5,879.5 C 74.9063,879.973 75.573,880.973 75.5,882.5C 74.0937,882.027 73.427,881.027 73.5,879.5 Z"/></g>
<g><path style="opacity:1" fill="#8c8c8c" d="M 75.5,882.5 C 76.9063,882.973 77.573,883.973 77.5,885.5C 76.0937,885.027 75.427,884.027 75.5,882.5 Z"/></g>
<g><path style="opacity:1" fill="#9c9c9c" d="M 903.5,885.5 C 903.573,887.027 902.906,888.027 901.5,888.5C 901.427,886.973 902.094,885.973 903.5,885.5 Z"/></g>
<g><path style="opacity:1" fill="#9e9e9e" d="M 79.5,887.5 C 81.8333,889.167 83.8333,891.167 85.5,893.5C 82.5,892.5 80.5,890.5 79.5,887.5 Z"/></g>
<g><path style="opacity:1" fill="#646464" d="M 897.5,892.5 C 896.415,894.587 894.749,895.92 892.5,896.5C 893.585,894.413 895.251,893.08 897.5,892.5 Z"/></g>
<g><path style="opacity:1" fill="#7f7f7f" d="M 15.5,910.5 C 17.0481,910.821 17.7148,911.821 17.5,913.5C 16.5987,912.71 15.9321,911.71 15.5,910.5 Z"/></g>
<g><path style="opacity:1" fill="#8a8a8a" d="M 43.5,944.5 C 45.4044,944.738 46.7377,945.738 47.5,947.5C 45.5956,947.262 44.2623,946.262 43.5,944.5 Z"/></g>
<g><path style="opacity:1" fill="#797979" d="M 51.5,950.5 C 53.0269,950.427 54.0269,951.094 54.5,952.5C 52.9731,952.573 51.9731,951.906 51.5,950.5 Z"/></g>
<g><path style="opacity:1" fill="#959595" d="M 57.5,954.5 C 59.0269,954.427 60.0269,955.094 60.5,956.5C 58.9731,956.573 57.9731,955.906 57.5,954.5 Z"/></g>
<g><path style="opacity:1" fill="#6a6a6a" d="M 83.5,966.5 C 86.1522,966.41 88.4855,967.076 90.5,968.5C 87.8478,968.59 85.5145,967.924 83.5,966.5 Z"/></g>
</svg>
